%YAML 1.1
%TAG !u! tag:unity3d.com,2011:
--- !u!74 &7400000
AnimationClip:
  m_ObjectHideFlags: 0
  m_CorrespondingSourceObject: {fileID: 0}
  m_PrefabInstance: {fileID: 0}
  m_PrefabAsset: {fileID: 0}
  m_Name: Engine2
  serializedVersion: 6
  m_Legacy: 0
  m_Compressed: 0
  m_UseHighQualityCurve: 1
  m_RotationCurves: []
  m_CompressedRotationCurves: []
  m_EulerCurves: []
  m_PositionCurves: []
  m_ScaleCurves: []
  m_FloatCurves: []
  m_PPtrCurves:
  - curve:
    - time: 0
      value: {fileID: 21300000, guid: 371fa23a16c2b470dbbdf50d24a9c247, type: 3}
    - time: 0.033333335
      value: {fileID: 21300000, guid: b9b1e0bfea2594a8ab7c72b806ba1f74, type: 3}
    - time: 0.06666667
      value: {fileID: 21300000, guid: 65658a241f9eb44868d1dd25fbe45567, type: 3}
    - time: 0.1
      value: {fileID: 21300000, guid: 39b1fc19ce0e74adba602f7441753d45, type: 3}
    - time: 0.13333334
      value: {fileID: 21300000, guid: 4be304567ca9445c6b56e5ee5ba36e98, type: 3}
    - time: 0.16666667
      value: {fileID: 21300000, guid: 91900bc67e3194397973b97573d7871a, type: 3}
    - time: 0.2
      value: {fileID: 21300000, guid: 91d6b4f7541d04f8a84b544e2ba320f3, type: 3}
    - time: 0.23333333
      value: {fileID: 21300000, guid: b37409cf2b45a4d51ab5b6dbe749dfb5, type: 3}
    - time: 0.26666668
      value: {fileID: 21300000, guid: a988e2147f21b42eeafdd6d67a1398c9, type: 3}
    - time: 0.3
      value: {fileID: 21300000, guid: 224dd748214e4487e9684ed76189e72c, type: 3}
    - time: 0.33333334
      value: {fileID: 21300000, guid: dec50e29c7aaf419296f5bd4367f7267, type: 3}
    - time: 0.36666667
      value: {fileID: 21300000, guid: 7ce49c16c0e13450997e287915015be7, type: 3}
    - time: 0.4
      value: {fileID: 21300000, guid: b0ae7b83ce4004e8ca908d83ffdaa631, type: 3}
    - time: 0.43333334
      value: {fileID: 21300000, guid: 3a43fe5b2e63b4302a97218aadad922b, type: 3}
    - time: 0.46666667
      value: {fileID: 21300000, guid: 9a5e85981da1341a3b0be48ac9018850, type: 3}
    - time: 0.5
      value: {fileID: 21300000, guid: ff51c104d85124c8fb1eb734a7fdf6ba, type: 3}
    - time: 0.53333336
      value: {fileID: 21300000, guid: 722a3c01e00aa43119d64afdf55c050a, type: 3}
    - time: 0.56666666
      value: {fileID: 21300000, guid: 98e39fe546a914dcc9274ea19783befc, type: 3}
    - time: 0.6
      value: {fileID: 21300000, guid: 6a96bfb47f6b847b18526fa45d03f75f, type: 3}
    - time: 0.6333333
      value: {fileID: 21300000, guid: 724814e4658a14ea781207ca48fa2177, type: 3}
    - time: 0.6666667
      value: {fileID: 21300000, guid: c3baf7f072a6e4a31b5c6885a925689f, type: 3}
    - time: 0.7
      value: {fileID: 21300000, guid: f5a17a2710d6e4947b7dbd6f09df0e63, type: 3}
    - time: 0.73333335
      value: {fileID: 21300000, guid: c7fc4a7c32ed244a7b332d7f47f69338, type: 3}
    - time: 0.76666665
      value: {fileID: 21300000, guid: 85f8eff109860470380608e2e9ab2455, type: 3}
    - time: 0.8
      value: {fileID: 21300000, guid: e8e2896cc975648b7adf47a617864e2c, type: 3}
    - time: 0.8333333
      value: {fileID: 21300000, guid: 0fb0c86510f5247809520525f9b15564, type: 3}
    - time: 0.8666667
      value: {fileID: 21300000, guid: fa4dc24a6c9ef4e0d80f4f29e81f5c07, type: 3}
    - time: 0.9
      value: {fileID: 21300000, guid: c64dc93513c1d43c4a32b4890bdd1094, type: 3}
    - time: 0.93333334
      value: {fileID: 21300000, guid: 6cb37fc16ab2947838824fe5e8699f5b, type: 3}
    - time: 0.96666664
      value: {fileID: 21300000, guid: 592a623b9883f40fdbd14650715e348d, type: 3}
    - time: 1
      value: {fileID: 21300000, guid: ac5743feac8594e9896814a5a6c7d973, type: 3}
    - time: 1.0333333
      value: {fileID: 21300000, guid: fe043de436dc54045aa0e28dfa8c7b3b, type: 3}
    - time: 1.0666667
      value: {fileID: 21300000, guid: 6b490e43963724ea9b9cd1556828132d, type: 3}
    - time: 1.1
      value: {fileID: 21300000, guid: 68412362e13fd4faaad33e19ed6b15ef, type: 3}
    - time: 1.1333333
      value: {fileID: 21300000, guid: 71aa8bacfa9f9481ab8633709b75736e, type: 3}
    - time: 1.1666666
      value: {fileID: 21300000, guid: b2482e14e17d14409bd610a03856206e, type: 3}
    - time: 1.2
      value: {fileID: 21300000, guid: 84b95eeaef8734ba3a766c8431719562, type: 3}
    - time: 1.2333333
      value: {fileID: 21300000, guid: 48f3fa46f18ed4f76a575fd05255c485, type: 3}
    - time: 1.2666667
      value: {fileID: 21300000, guid: b0798feba2b474760abfb4215954dc0e, type: 3}
    - time: 1.3
      value: {fileID: 21300000, guid: 952813c5180e94f4b88216986b694abc, type: 3}
    - time: 1.3333334
      value: {fileID: 21300000, guid: 0cc757a8bfc7c49f186df041b0e23d3c, type: 3}
    - time: 1.3666667
      value: {fileID: 21300000, guid: 202c49498b8ac45f49821c6b4e6af44e, type: 3}
    - time: 1.4
      value: {fileID: 21300000, guid: 6715a890046864741a486e6345de6455, type: 3}
    - time: 1.4333333
      value: {fileID: 21300000, guid: 27642d106d1bd45579b85da9127236ab, type: 3}
    - time: 1.4666667
      value: {fileID: 21300000, guid: 72546d6c77dc746fa8759700d8eaa6dd, type: 3}
    - time: 1.5
      value: {fileID: 21300000, guid: 12fd7f0d3ade74968ad2d5c45e3b0dc2, type: 3}
    - time: 1.5333333
      value: {fileID: 21300000, guid: c6843f5bbc4e74c1eaecc3b065c2bc9f, type: 3}
    - time: 1.5666667
      value: {fileID: 21300000, guid: efe1c96d5ad364cb1b8b269684f99bda, type: 3}
    - time: 1.6
      value: {fileID: 21300000, guid: b36b17ba45be141249c2ca637dd5e301, type: 3}
    - time: 1.6333333
      value: {fileID: 21300000, guid: 83d054dcc582b4d6eb36b4ed9bad218c, type: 3}
    - time: 1.6666666
      value: {fileID: 21300000, guid: f449401c728d848b8afd50c0d87cae15, type: 3}
    - time: 1.7
      value: {fileID: 21300000, guid: 0d2a3411cd96d4376bfc43624c9d28aa, type: 3}
    - time: 1.7333333
      value: {fileID: 21300000, guid: 87eace5b881694ddaaa05fb60497ded5, type: 3}
    - time: 1.7666667
      value: {fileID: 21300000, guid: 02c84fb491fb84f9983957933d7b1958, type: 3}
    - time: 1.8
      value: {fileID: 21300000, guid: 93e497a954ee0430ca3a9f7cda480248, type: 3}
    - time: 1.8333334
      value: {fileID: 21300000, guid: 9762b8f440aef4ced949fec76db6ccf2, type: 3}
    - time: 1.8666667
      value: {fileID: 21300000, guid: 5ba671ba06a4f473686885c04b0bd004, type: 3}
    - time: 1.9
      value: {fileID: 21300000, guid: 066c71a9e909f43018c6cf97ff2f5da8, type: 3}
    - time: 1.9333333
      value: {fileID: 21300000, guid: 99ae4220665ea4376ad2e9797d8e64cc, type: 3}
    - time: 1.9666667
      value: {fileID: 21300000, guid: 991f1fe0ea5d94e65a4e6e2412eb4771, type: 3}
    - time: 2
      value: {fileID: 21300000, guid: d83579cdff4734088a5d1cc6055da698, type: 3}
    attribute: m_Sprite
    path: 
    classID: 212
    script: {fileID: 0}
  m_SampleRate: 30
  m_WrapMode: 0
  m_Bounds:
    m_Center: {x: 0, y: 0, z: 0}
    m_Extent: {x: 0, y: 0, z: 0}
  m_ClipBindingConstant:
    genericBindings:
    - serializedVersion: 2
      path: 0
      attribute: 0
      script: {fileID: 0}
      typeID: 212
      customType: 23
      isPPtrCurve: 1
    pptrCurveMapping:
    - {fileID: 21300000, guid: 371fa23a16c2b470dbbdf50d24a9c247, type: 3}
    - {fileID: 21300000, guid: b9b1e0bfea2594a8ab7c72b806ba1f74, type: 3}
    - {fileID: 21300000, guid: 65658a241f9eb44868d1dd25fbe45567, type: 3}
    - {fileID: 21300000, guid: 39b1fc19ce0e74adba602f7441753d45, type: 3}
    - {fileID: 21300000, guid: 4be304567ca9445c6b56e5ee5ba36e98, type: 3}
    - {fileID: 21300000, guid: 91900bc67e3194397973b97573d7871a, type: 3}
    - {fileID: 21300000, guid: 91d6b4f7541d04f8a84b544e2ba320f3, type: 3}
    - {fileID: 21300000, guid: b37409cf2b45a4d51ab5b6dbe749dfb5, type: 3}
    - {fileID: 21300000, guid: a988e2147f21b42eeafdd6d67a1398c9, type: 3}
    - {fileID: 21300000, guid: 224dd748214e4487e9684ed76189e72c, type: 3}
    - {fileID: 21300000, guid: dec50e29c7aaf419296f5bd4367f7267, type: 3}
    - {fileID: 21300000, guid: 7ce49c16c0e13450997e287915015be7, type: 3}
    - {fileID: 21300000, guid: b0ae7b83ce4004e8ca908d83ffdaa631, type: 3}
    - {fileID: 21300000, guid: 3a43fe5b2e63b4302a97218aadad922b, type: 3}
    - {fileID: 21300000, guid: 9a5e85981da1341a3b0be48ac9018850, type: 3}
    - {fileID: 21300000, guid: ff51c104d85124c8fb1eb734a7fdf6ba, type: 3}
    - {fileID: 21300000, guid: 722a3c01e00aa43119d64afdf55c050a, type: 3}
    - {fileID: 21300000, guid: 98e39fe546a914dcc9274ea19783befc, type: 3}
    - {fileID: 21300000, guid: 6a96bfb47f6b847b18526fa45d03f75f, type: 3}
    - {fileID: 21300000, guid: 724814e4658a14ea781207ca48fa2177, type: 3}
    - {fileID: 21300000, guid: c3baf7f072a6e4a31b5c6885a925689f, type: 3}
    - {fileID: 21300000, guid: f5a17a2710d6e4947b7dbd6f09df0e63, type: 3}
    - {fileID: 21300000, guid: c7fc4a7c32ed244a7b332d7f47f69338, type: 3}
    - {fileID: 21300000, guid: 85f8eff109860470380608e2e9ab2455, type: 3}
    - {fileID: 21300000, guid: e8e2896cc975648b7adf47a617864e2c, type: 3}
    - {fileID: 21300000, guid: 0fb0c86510f5247809520525f9b15564, type: 3}
    - {fileID: 21300000, guid: fa4dc24a6c9ef4e0d80f4f29e81f5c07, type: 3}
    - {fileID: 21300000, guid: c64dc93513c1d43c4a32b4890bdd1094, type: 3}
    - {fileID: 21300000, guid: 6cb37fc16ab2947838824fe5e8699f5b, type: 3}
    - {fileID: 21300000, guid: 592a623b9883f40fdbd14650715e348d, type: 3}
    - {fileID: 21300000, guid: ac5743feac8594e9896814a5a6c7d973, type: 3}
    - {fileID: 21300000, guid: fe043de436dc54045aa0e28dfa8c7b3b, type: 3}
    - {fileID: 21300000, guid: 6b490e43963724ea9b9cd1556828132d, type: 3}
    - {fileID: 21300000, guid: 68412362e13fd4faaad33e19ed6b15ef, type: 3}
    - {fileID: 21300000, guid: 71aa8bacfa9f9481ab8633709b75736e, type: 3}
    - {fileID: 21300000, guid: b2482e14e17d14409bd610a03856206e, type: 3}
    - {fileID: 21300000, guid: 84b95eeaef8734ba3a766c8431719562, type: 3}
    - {fileID: 21300000, guid: 48f3fa46f18ed4f76a575fd05255c485, type: 3}
    - {fileID: 21300000, guid: b0798feba2b474760abfb4215954dc0e, type: 3}
    - {fileID: 21300000, guid: 952813c5180e94f4b88216986b694abc, type: 3}
    - {fileID: 21300000, guid: 0cc757a8bfc7c49f186df041b0e23d3c, type: 3}
    - {fileID: 21300000, guid: 202c49498b8ac45f49821c6b4e6af44e, type: 3}
    - {fileID: 21300000, guid: 6715a890046864741a486e6345de6455, type: 3}
    - {fileID: 21300000, guid: 27642d106d1bd45579b85da9127236ab, type: 3}
    - {fileID: 21300000, guid: 72546d6c77dc746fa8759700d8eaa6dd, type: 3}
    - {fileID: 21300000, guid: 12fd7f0d3ade74968ad2d5c45e3b0dc2, type: 3}
    - {fileID: 21300000, guid: c6843f5bbc4e74c1eaecc3b065c2bc9f, type: 3}
    - {fileID: 21300000, guid: efe1c96d5ad364cb1b8b269684f99bda, type: 3}
    - {fileID: 21300000, guid: b36b17ba45be141249c2ca637dd5e301, type: 3}
    - {fileID: 21300000, guid: 83d054dcc582b4d6eb36b4ed9bad218c, type: 3}
    - {fileID: 21300000, guid: f449401c728d848b8afd50c0d87cae15, type: 3}
    - {fileID: 21300000, guid: 0d2a3411cd96d4376bfc43624c9d28aa, type: 3}
    - {fileID: 21300000, guid: 87eace5b881694ddaaa05fb60497ded5, type: 3}
    - {fileID: 21300000, guid: 02c84fb491fb84f9983957933d7b1958, type: 3}
    - {fileID: 21300000, guid: 93e497a954ee0430ca3a9f7cda480248, type: 3}
    - {fileID: 21300000, guid: 9762b8f440aef4ced949fec76db6ccf2, type: 3}
    - {fileID: 21300000, guid: 5ba671ba06a4f473686885c04b0bd004, type: 3}
    - {fileID: 21300000, guid: 066c71a9e909f43018c6cf97ff2f5da8, type: 3}
    - {fileID: 21300000, guid: 99ae4220665ea4376ad2e9797d8e64cc, type: 3}
    - {fileID: 21300000, guid: 991f1fe0ea5d94e65a4e6e2412eb4771, type: 3}
    - {fileID: 21300000, guid: d83579cdff4734088a5d1cc6055da698, type: 3}
  m_AnimationClipSettings:
    serializedVersion: 2
    m_AdditiveReferencePoseClip: {fileID: 0}
    m_AdditiveReferencePoseTime: 0
    m_StartTime: 0
    m_StopTime: 2.0333333
    m_OrientationOffsetY: 0
    m_Level: 0
    m_CycleOffset: 0
    m_HasAdditiveReferencePose: 0
    m_LoopTime: 1
    m_LoopBlend: 0
    m_LoopBlendOrientation: 0
    m_LoopBlendPositionY: 0
    m_LoopBlendPositionXZ: 0
    m_KeepOriginalOrientation: 0
    m_KeepOriginalPositionY: 1
    m_KeepOriginalPositionXZ: 0
    m_HeightFromFeet: 0
    m_Mirror: 0
  m_EditorCurves: []
  m_EulerEditorCurves: []
  m_HasGenericRootTransform: 0
  m_HasMotionFloatCurves: 0
  m_Events: []
