%YAML 1.1
%TAG !u! tag:unity3d.com,2011:
--- !u!74 &7400000
AnimationClip:
  m_ObjectHideFlags: 0
  m_CorrespondingSourceObject: {fileID: 0}
  m_PrefabInstance: {fileID: 0}
  m_PrefabAsset: {fileID: 0}
  m_Name: SpeedBost
  serializedVersion: 6
  m_Legacy: 0
  m_Compressed: 0
  m_UseHighQualityCurve: 1
  m_RotationCurves: []
  m_CompressedRotationCurves: []
  m_EulerCurves: []
  m_PositionCurves: []
  m_ScaleCurves: []
  m_FloatCurves: []
  m_PPtrCurves:
  - curve:
    - time: 0
      value: {fileID: 21300000, guid: 5b8849e8703cd2a48856f693a7ce5940, type: 3}
    - time: 0.025
      value: {fileID: 21300000, guid: 25813c6fe10cf6c43b92057c55fe21bd, type: 3}
    - time: 0.05
      value: {fileID: 21300000, guid: c7c2dfe89c40d80408f4c2373da8dd84, type: 3}
    - time: 0.075
      value: {fileID: 21300000, guid: 73f17f0ea9044d5419812f58e8154a41, type: 3}
    - time: 0.1
      value: {fileID: 21300000, guid: 4ef041ab5e189614f92e3d34f3fb7b84, type: 3}
    - time: 0.125
      value: {fileID: 21300000, guid: d4de74aee97397b44b7df297ba53a688, type: 3}
    - time: 0.15
      value: {fileID: 21300000, guid: a3bd87442a1340045bdc9d4f68f020bf, type: 3}
    - time: 0.175
      value: {fileID: 21300000, guid: 5a268b4f96c2b004ea1a38c78e2277a1, type: 3}
    - time: 0.2
      value: {fileID: 21300000, guid: 2486687f5b9cec34fbd039e818fcd398, type: 3}
    - time: 0.225
      value: {fileID: 21300000, guid: baa9c1371622a9b42a10d5b06f18b0c3, type: 3}
    - time: 0.25
      value: {fileID: 21300000, guid: 8533facd69878cc44b2123eefba2d698, type: 3}
    - time: 0.275
      value: {fileID: 21300000, guid: 90a8c9325bb9fd4478658c0f72c135ab, type: 3}
    - time: 0.3
      value: {fileID: 21300000, guid: 06e00fa6af8638a4ba5e66629f30e8c1, type: 3}
    - time: 0.325
      value: {fileID: 21300000, guid: 40af6f7298415f340867c8409d34d6b0, type: 3}
    - time: 0.35
      value: {fileID: 21300000, guid: 55bd0bf19a65f4c4c8c025b57c92d5a4, type: 3}
    - time: 0.375
      value: {fileID: 21300000, guid: 28f12876b78240a4aa78e0948517b936, type: 3}
    attribute: m_Sprite
    path: 
    classID: 212
    script: {fileID: 0}
  m_SampleRate: 40
  m_WrapMode: 0
  m_Bounds:
    m_Center: {x: 0, y: 0, z: 0}
    m_Extent: {x: 0, y: 0, z: 0}
  m_ClipBindingConstant:
    genericBindings:
    - serializedVersion: 2
      path: 0
      attribute: 0
      script: {fileID: 0}
      typeID: 212
      customType: 23
      isPPtrCurve: 1
    pptrCurveMapping:
    - {fileID: 21300000, guid: 5b8849e8703cd2a48856f693a7ce5940, type: 3}
    - {fileID: 21300000, guid: 25813c6fe10cf6c43b92057c55fe21bd, type: 3}
    - {fileID: 21300000, guid: c7c2dfe89c40d80408f4c2373da8dd84, type: 3}
    - {fileID: 21300000, guid: 73f17f0ea9044d5419812f58e8154a41, type: 3}
    - {fileID: 21300000, guid: 4ef041ab5e189614f92e3d34f3fb7b84, type: 3}
    - {fileID: 21300000, guid: d4de74aee97397b44b7df297ba53a688, type: 3}
    - {fileID: 21300000, guid: a3bd87442a1340045bdc9d4f68f020bf, type: 3}
    - {fileID: 21300000, guid: 5a268b4f96c2b004ea1a38c78e2277a1, type: 3}
    - {fileID: 21300000, guid: 2486687f5b9cec34fbd039e818fcd398, type: 3}
    - {fileID: 21300000, guid: baa9c1371622a9b42a10d5b06f18b0c3, type: 3}
    - {fileID: 21300000, guid: 8533facd69878cc44b2123eefba2d698, type: 3}
    - {fileID: 21300000, guid: 90a8c9325bb9fd4478658c0f72c135ab, type: 3}
    - {fileID: 21300000, guid: 06e00fa6af8638a4ba5e66629f30e8c1, type: 3}
    - {fileID: 21300000, guid: 40af6f7298415f340867c8409d34d6b0, type: 3}
    - {fileID: 21300000, guid: 55bd0bf19a65f4c4c8c025b57c92d5a4, type: 3}
    - {fileID: 21300000, guid: 28f12876b78240a4aa78e0948517b936, type: 3}
  m_AnimationClipSettings:
    serializedVersion: 2
    m_AdditiveReferencePoseClip: {fileID: 0}
    m_AdditiveReferencePoseTime: 0
    m_StartTime: 0
    m_StopTime: 0.4
    m_OrientationOffsetY: 0
    m_Level: 0
    m_CycleOffset: 0
    m_HasAdditiveReferencePose: 0
    m_LoopTime: 1
    m_LoopBlend: 0
    m_LoopBlendOrientation: 0
    m_LoopBlendPositionY: 0
    m_LoopBlendPositionXZ: 0
    m_KeepOriginalOrientation: 0
    m_KeepOriginalPositionY: 1
    m_KeepOriginalPositionXZ: 0
    m_HeightFromFeet: 0
    m_Mirror: 0
  m_EditorCurves: []
  m_EulerEditorCurves: []
  m_HasGenericRootTransform: 0
  m_HasMotionFloatCurves: 0
  m_Events: []
