%YAML 1.1
%TAG !u! tag:unity3d.com,2011:
--- !u!74 &7400000
AnimationClip:
  m_ObjectHideFlags: 0
  m_CorrespondingSourceObject: {fileID: 0}
  m_PrefabInstance: {fileID: 0}
  m_PrefabAsset: {fileID: 0}
  m_Name: PlayerTurnLeft
  serializedVersion: 6
  m_Legacy: 0
  m_Compressed: 0
  m_UseHighQualityCurve: 1
  m_RotationCurves: []
  m_CompressedRotationCurves: []
  m_EulerCurves: []
  m_PositionCurves: []
  m_ScaleCurves: []
  m_FloatCurves: []
  m_PPtrCurves:
  - curve:
    - time: 0
      value: {fileID: 21300000, guid: 1b4a8fdd39d3a45d0a9ee484ad6800ec, type: 3}
    - time: 0.014285714
      value: {fileID: 21300000, guid: 9284343f055144054b5d7f5a72d1dbb1, type: 3}
    - time: 0.028571429
      value: {fileID: 21300000, guid: 76f24fca3aede49a392f5b213ca9bc34, type: 3}
    - time: 0.042857144
      value: {fileID: 21300000, guid: 07f1dc456c0c944c69246ec5b62e015a, type: 3}
    - time: 0.057142857
      value: {fileID: 21300000, guid: 053a77bc50ed441899c0d5a4bf34cb74, type: 3}
    - time: 0.071428575
      value: {fileID: 21300000, guid: 35a20c271ee5445c6b637c26ef35a015, type: 3}
    - time: 0.08571429
      value: {fileID: 21300000, guid: bb173694be00148b4bc0ebfa1a1e58ed, type: 3}
    - time: 0.1
      value: {fileID: 21300000, guid: be96d907589954304a9aaf149e51d40c, type: 3}
    - time: 0.114285715
      value: {fileID: 21300000, guid: f3346fe3e2c9e4527a394f1e99d25f1f, type: 3}
    attribute: m_Sprite
    path: 
    classID: 212
    script: {fileID: 0}
  m_SampleRate: 70
  m_WrapMode: 0
  m_Bounds:
    m_Center: {x: 0, y: 0, z: 0}
    m_Extent: {x: 0, y: 0, z: 0}
  m_ClipBindingConstant:
    genericBindings:
    - serializedVersion: 2
      path: 0
      attribute: 0
      script: {fileID: 0}
      typeID: 212
      customType: 23
      isPPtrCurve: 1
    pptrCurveMapping:
    - {fileID: 21300000, guid: 1b4a8fdd39d3a45d0a9ee484ad6800ec, type: 3}
    - {fileID: 21300000, guid: 9284343f055144054b5d7f5a72d1dbb1, type: 3}
    - {fileID: 21300000, guid: 76f24fca3aede49a392f5b213ca9bc34, type: 3}
    - {fileID: 21300000, guid: 07f1dc456c0c944c69246ec5b62e015a, type: 3}
    - {fileID: 21300000, guid: 053a77bc50ed441899c0d5a4bf34cb74, type: 3}
    - {fileID: 21300000, guid: 35a20c271ee5445c6b637c26ef35a015, type: 3}
    - {fileID: 21300000, guid: bb173694be00148b4bc0ebfa1a1e58ed, type: 3}
    - {fileID: 21300000, guid: be96d907589954304a9aaf149e51d40c, type: 3}
    - {fileID: 21300000, guid: f3346fe3e2c9e4527a394f1e99d25f1f, type: 3}
  m_AnimationClipSettings:
    serializedVersion: 2
    m_AdditiveReferencePoseClip: {fileID: 0}
    m_AdditiveReferencePoseTime: 0
    m_StartTime: 0
    m_StopTime: 0.12857144
    m_OrientationOffsetY: 0
    m_Level: 0
    m_CycleOffset: 0
    m_HasAdditiveReferencePose: 0
    m_LoopTime: 0
    m_LoopBlend: 0
    m_LoopBlendOrientation: 0
    m_LoopBlendPositionY: 0
    m_LoopBlendPositionXZ: 0
    m_KeepOriginalOrientation: 0
    m_KeepOriginalPositionY: 1
    m_KeepOriginalPositionXZ: 0
    m_HeightFromFeet: 0
    m_Mirror: 0
  m_EditorCurves: []
  m_EulerEditorCurves: []
  m_HasGenericRootTransform: 0
  m_HasMotionFloatCurves: 0
  m_Events: []
